<project description="" id="1" linkage="" name="TS1_HW6_ProcesTest" version=""><graphs><graph description="" id="6" linkage="" name="New oriented graph 1" type="ORIENTED_GRAPH" version=""><node description="" height="25.0" id="2" name="START" priority="" style="STYLE_START" width="70.0" xpos="260.0" ypos="50.0"></node><edge description="" id="9" name="4" priority="" source="2" target="3"></edge><node description="" height="40.0" id="3" name="A" priority="" style="STYLE_NODE" width="40.0" xpos="270.0" ypos="140.0"></node><edge description="" id="14" name="2" priority="" source="3" target="13"></edge><edge description="" id="16" name="5" priority="" source="3" target="12"></edge><node description="" height="40.0" id="12" name="B" priority="" style="STYLE_NODE" width="40.0" xpos="270.0" ypos="260.0"></node><edge description="" id="15" name="3" priority="" source="12" target="13"></edge><edge description="" id="29" name="12" priority="" source="12" target="3"></edge><node description="" height="40.0" id="13" name="C" priority="" style="STYLE_NODE" width="40.0" xpos="380.0" ypos="210.0"></node><edge description="" id="18" name="6" priority="" source="13" target="17"></edge><edge description="" id="21" name="8" priority="" source="13" target="19"></edge><node description="" height="40.0" id="17" name="D" priority="" style="STYLE_NODE" width="40.0" xpos="540.0" ypos="210.0"></node><edge description="" id="20" name="7" priority="" source="17" target="19"></edge><edge description="" id="28" name="11" priority="" source="17" target="13"></edge><node description="" height="40.0" id="19" name="E" priority="" style="STYLE_NODE" width="40.0" xpos="540.0" ypos="310.0"></node><edge description="" id="25" name="9" priority="" source="19" target="24"></edge><edge description="" id="27" name="10" priority="" source="19" target="26"></edge><node description="" height="40.0" id="24" name="F" priority="" style="STYLE_NODE" width="40.0" xpos="640.0" ypos="310.0"></node><node description="" height="40.0" id="26" name="G" priority="" style="STYLE_NODE" width="40.0" xpos="490.0" ypos="390.0"></node><test_case changed="false" combinations_data_rows="7" graph_id="6" name="Test situations 1, TDL= 1, ALG= PCT." note="" test_situations_data_rows="4"><combinations_data_value col="0" selected_row="0">G</combinations_data_value><combinations_data_value col="1" selected_row="0">10
</combinations_data_value><combinations_data_value col="0" selected_row="1">B</combinations_data_value><combinations_data_value col="1" selected_row="1">5
</combinations_data_value><combinations_data_value col="0" selected_row="2">A</combinations_data_value><combinations_data_value col="1" selected_row="2">4
12
</combinations_data_value><combinations_data_value col="0" selected_row="3">C</combinations_data_value><combinations_data_value col="1" selected_row="3">2
3
11
</combinations_data_value><combinations_data_value col="0" selected_row="4">E</combinations_data_value><combinations_data_value col="1" selected_row="4">8
7
</combinations_data_value><combinations_data_value col="0" selected_row="5">F</combinations_data_value><combinations_data_value col="1" selected_row="5">9
</combinations_data_value><combinations_data_value col="0" selected_row="6">D</combinations_data_value><combinations_data_value col="1" selected_row="6">6
</combinations_data_value><test_situation_row><value edge_id="9" name="4"></value><value edge_id="14" name="2"></value><value edge_id="18" name="6"></value><value edge_id="28" name="11"></value><value edge_id="21" name="8"></value><value edge_id="25" name="9"></value></test_situation_row><test_situation_row><value edge_id="9" name="4"></value><value edge_id="16" name="5"></value><value edge_id="29" name="12"></value><value edge_id="14" name="2"></value><value edge_id="18" name="6"></value><value edge_id="20" name="7"></value><value edge_id="25" name="9"></value></test_situation_row><test_situation_row><value edge_id="9" name="4"></value><value edge_id="16" name="5"></value><value edge_id="15" name="3"></value><value edge_id="18" name="6"></value><value edge_id="28" name="11"></value><value edge_id="21" name="8"></value><value edge_id="25" name="9"></value></test_situation_row><test_situation_row><value edge_id="9" name="4"></value><value edge_id="14" name="2"></value><value edge_id="21" name="8"></value><value edge_id="27" name="10"></value></test_situation_row></test_case><test_case changed="false" combinations_data_rows="5" graph_id="6" name="Test situations 2, TDL= 2, ALG= PCT." note="" test_situations_data_rows="7"><combinations_data_value col="0" selected_row="0">B</combinations_data_value><combinations_data_value col="1" selected_row="0">5 - 3
5 - 12
</combinations_data_value><combinations_data_value col="0" selected_row="1">A</combinations_data_value><combinations_data_value col="1" selected_row="1">4 - 2
4 - 5
12 - 2
12 - 5
</combinations_data_value><combinations_data_value col="0" selected_row="2">C</combinations_data_value><combinations_data_value col="1" selected_row="2">2 - 6
2 - 8
3 - 6
3 - 8
11 - 6
11 - 8
</combinations_data_value><combinations_data_value col="0" selected_row="3">D</combinations_data_value><combinations_data_value col="1" selected_row="3">6 - 7
6 - 11
</combinations_data_value><combinations_data_value col="0" selected_row="4">E</combinations_data_value><combinations_data_value col="1" selected_row="4">8 - 9
8 - 10
7 - 9
7 - 10
</combinations_data_value><test_situation_row><value edge_id="9" name="4"></value><value edge_id="14" name="2"></value><value edge_id="18" name="6"></value><value edge_id="20" name="7"></value><value edge_id="25" name="9"></value></test_situation_row><test_situation_row><value edge_id="9" name="4"></value><value edge_id="16" name="5"></value><value edge_id="15" name="3"></value><value edge_id="18" name="6"></value><value edge_id="28" name="11"></value><value edge_id="18" name="6"></value><value edge_id="20" name="7"></value><value edge_id="25" name="9"></value></test_situation_row><test_situation_row><value edge_id="9" name="4"></value><value edge_id="16" name="5"></value><value edge_id="29" name="12"></value><value edge_id="16" name="5"></value><value edge_id="29" name="12"></value><value edge_id="14" name="2"></value><value edge_id="21" name="8"></value><value edge_id="25" name="9"></value></test_situation_row><test_situation_row><value edge_id="9" name="4"></value><value edge_id="16" name="5"></value><value edge_id="15" name="3"></value><value edge_id="21" name="8"></value><value edge_id="25" name="9"></value></test_situation_row><test_situation_row><value edge_id="9" name="4"></value><value edge_id="14" name="2"></value><value edge_id="18" name="6"></value><value edge_id="28" name="11"></value><value edge_id="21" name="8"></value><value edge_id="25" name="9"></value></test_situation_row><test_situation_row><value edge_id="9" name="4"></value><value edge_id="14" name="2"></value><value edge_id="21" name="8"></value><value edge_id="27" name="10"></value></test_situation_row><test_situation_row><value edge_id="9" name="4"></value><value edge_id="14" name="2"></value><value edge_id="18" name="6"></value><value edge_id="20" name="7"></value><value edge_id="27" name="10"></value></test_situation_row></test_case><test_case changed="false" combinations_data_rows="4" graph_id="6" name="Test situations 3, TDL= 3, ALG= PCT." note="" test_situations_data_rows="12"><combinations_data_value col="0" selected_row="0">B</combinations_data_value><combinations_data_value col="1" selected_row="0">5 - 3 - 6
5 - 3 - 8
5 - 12 - 2
5 - 12 - 5
</combinations_data_value><combinations_data_value col="0" selected_row="1">A</combinations_data_value><combinations_data_value col="1" selected_row="1">4 - 2 - 6
4 - 2 - 8
4 - 5 - 3
4 - 5 - 12
12 - 2 - 6
12 - 2 - 8
12 - 5 - 3
12 - 5 - 12
</combinations_data_value><combinations_data_value col="0" selected_row="2">C</combinations_data_value><combinations_data_value col="1" selected_row="2">2 - 6 - 7
2 - 6 - 11
2 - 8 - 9
2 - 8 - 10
3 - 6 - 7
3 - 6 - 11
3 - 8 - 9
3 - 8 - 10
11 - 6 - 7
11 - 6 - 11
11 - 8 - 9
11 - 8 - 10
</combinations_data_value><combinations_data_value col="0" selected_row="3">D</combinations_data_value><combinations_data_value col="1" selected_row="3">6 - 7 - 9
6 - 7 - 10
6 - 11 - 6
6 - 11 - 8
</combinations_data_value><test_situation_row><value edge_id="9" name="4"></value><value edge_id="14" name="2"></value><value edge_id="18" name="6"></value><value edge_id="20" name="7"></value><value edge_id="25" name="9"></value></test_situation_row><test_situation_row><value edge_id="9" name="4"></value><value edge_id="14" name="2"></value><value edge_id="21" name="8"></value><value edge_id="25" name="9"></value></test_situation_row><test_situation_row><value edge_id="9" name="4"></value><value edge_id="16" name="5"></value><value edge_id="15" name="3"></value><value edge_id="18" name="6"></value><value edge_id="20" name="7"></value><value edge_id="25" name="9"></value></test_situation_row><test_situation_row><value edge_id="9" name="4"></value><value edge_id="16" name="5"></value><value edge_id="29" name="12"></value><value edge_id="14" name="2"></value><value edge_id="18" name="6"></value><value edge_id="28" name="11"></value><value edge_id="18" name="6"></value><value edge_id="20" name="7"></value><value edge_id="25" name="9"></value></test_situation_row><test_situation_row><value edge_id="9" name="4"></value><value edge_id="16" name="5"></value><value edge_id="29" name="12"></value><value edge_id="16" name="5"></value><value edge_id="29" name="12"></value><value edge_id="14" name="2"></value><value edge_id="21" name="8"></value><value edge_id="25" name="9"></value></test_situation_row><test_situation_row><value edge_id="9" name="4"></value><value edge_id="16" name="5"></value><value edge_id="29" name="12"></value><value edge_id="16" name="5"></value><value edge_id="15" name="3"></value><value edge_id="21" name="8"></value><value edge_id="25" name="9"></value></test_situation_row><test_situation_row><value edge_id="9" name="4"></value><value edge_id="16" name="5"></value><value edge_id="15" name="3"></value><value edge_id="18" name="6"></value><value edge_id="28" name="11"></value><value edge_id="21" name="8"></value><value edge_id="25" name="9"></value></test_situation_row><test_situation_row><value edge_id="9" name="4"></value><value edge_id="14" name="2"></value><value edge_id="18" name="6"></value><value edge_id="28" name="11"></value><value edge_id="18" name="6"></value><value edge_id="28" name="11"></value><value edge_id="21" name="8"></value><value edge_id="25" name="9"></value></test_situation_row><test_situation_row><value edge_id="9" name="4"></value><value edge_id="14" name="2"></value><value edge_id="21" name="8"></value><value edge_id="27" name="10"></value></test_situation_row><test_situation_row><value edge_id="9" name="4"></value><value edge_id="16" name="5"></value><value edge_id="15" name="3"></value><value edge_id="21" name="8"></value><value edge_id="27" name="10"></value></test_situation_row><test_situation_row><value edge_id="9" name="4"></value><value edge_id="14" name="2"></value><value edge_id="18" name="6"></value><value edge_id="28" name="11"></value><value edge_id="21" name="8"></value><value edge_id="27" name="10"></value></test_situation_row><test_situation_row><value edge_id="9" name="4"></value><value edge_id="14" name="2"></value><value edge_id="18" name="6"></value><value edge_id="20" name="7"></value><value edge_id="27" name="10"></value></test_situation_row></test_case></graph></graphs><crud linkage="" version=""><description></description><entities><entity entity_id="E0"><name>E1</name><description></description><attributes></attributes></entity><entity entity_id="E1"><name>E2</name><description></description><attributes></attributes></entity><entity entity_id="E2"><name>E3</name><description></description><attributes></attributes></entity></entities><functions><function function_id="F0"><name>F1</name><description></description></function><function function_id="F1"><name>F2</name><description></description></function><function function_id="F2"><name>F3</name><description></description></function></functions><actions><action entity_id_ref="E0" function_id_ref="F0"><create imns="false" is_set="false"><touched_attributes></touched_attributes></create><read imns="false" is_set="false"><touched_attributes></touched_attributes></read><update imns="false" is_set="false"><touched_attributes></touched_attributes></update><delete imns="false" is_set="false"><touched_attributes></touched_attributes></delete><best_read imns="false" is_set="false"></best_read><influences><influence entity_id_ref="E1" imns="false" is_set="false"></influence><influence entity_id_ref="E2" imns="false" is_set="false"></influence></influences></action><action entity_id_ref="E1" function_id_ref="F0"><create imns="false" is_set="false"><touched_attributes></touched_attributes></create><read imns="false" is_set="false"><touched_attributes></touched_attributes></read><update imns="false" is_set="false"><touched_attributes></touched_attributes></update><delete imns="false" is_set="false"><touched_attributes></touched_attributes></delete><best_read imns="false" is_set="false"></best_read><influences><influence entity_id_ref="E0" imns="false" is_set="false"></influence><influence entity_id_ref="E2" imns="false" is_set="false"></influence></influences></action><action entity_id_ref="E2" function_id_ref="F0"><create imns="false" is_set="false"><touched_attributes></touched_attributes></create><read imns="false" is_set="false"><touched_attributes></touched_attributes></read><update imns="false" is_set="false"><touched_attributes></touched_attributes></update><delete imns="false" is_set="false"><touched_attributes></touched_attributes></delete><best_read imns="false" is_set="false"></best_read><influences><influence entity_id_ref="E0" imns="false" is_set="false"></influence><influence entity_id_ref="E1" imns="false" is_set="false"></influence></influences></action><action entity_id_ref="E0" function_id_ref="F1"><create imns="false" is_set="false"><touched_attributes></touched_attributes></create><read imns="false" is_set="false"><touched_attributes></touched_attributes></read><update imns="false" is_set="false"><touched_attributes></touched_attributes></update><delete imns="false" is_set="false"><touched_attributes></touched_attributes></delete><best_read imns="false" is_set="false"></best_read><influences><influence entity_id_ref="E1" imns="false" is_set="false"></influence><influence entity_id_ref="E2" imns="false" is_set="false"></influence></influences></action><action entity_id_ref="E1" function_id_ref="F1"><create imns="false" is_set="false"><touched_attributes></touched_attributes></create><read imns="false" is_set="false"><touched_attributes></touched_attributes></read><update imns="false" is_set="false"><touched_attributes></touched_attributes></update><delete imns="false" is_set="false"><touched_attributes></touched_attributes></delete><best_read imns="false" is_set="false"></best_read><influences><influence entity_id_ref="E0" imns="false" is_set="false"></influence><influence entity_id_ref="E2" imns="false" is_set="false"></influence></influences></action><action entity_id_ref="E2" function_id_ref="F1"><create imns="false" is_set="false"><touched_attributes></touched_attributes></create><read imns="false" is_set="false"><touched_attributes></touched_attributes></read><update imns="false" is_set="false"><touched_attributes></touched_attributes></update><delete imns="false" is_set="false"><touched_attributes></touched_attributes></delete><best_read imns="false" is_set="false"></best_read><influences><influence entity_id_ref="E0" imns="false" is_set="false"></influence><influence entity_id_ref="E1" imns="false" is_set="false"></influence></influences></action><action entity_id_ref="E0" function_id_ref="F2"><create imns="false" is_set="false"><touched_attributes></touched_attributes></create><read imns="false" is_set="false"><touched_attributes></touched_attributes></read><update imns="false" is_set="false"><touched_attributes></touched_attributes></update><delete imns="false" is_set="false"><touched_attributes></touched_attributes></delete><best_read imns="false" is_set="false"></best_read><influences><influence entity_id_ref="E1" imns="false" is_set="false"></influence><influence entity_id_ref="E2" imns="false" is_set="false"></influence></influences></action><action entity_id_ref="E1" function_id_ref="F2"><create imns="false" is_set="false"><touched_attributes></touched_attributes></create><read imns="false" is_set="false"><touched_attributes></touched_attributes></read><update imns="false" is_set="false"><touched_attributes></touched_attributes></update><delete imns="false" is_set="false"><touched_attributes></touched_attributes></delete><best_read imns="false" is_set="false"></best_read><influences><influence entity_id_ref="E0" imns="false" is_set="false"></influence><influence entity_id_ref="E2" imns="false" is_set="false"></influence></influences></action><action entity_id_ref="E2" function_id_ref="F2"><create imns="false" is_set="false"><touched_attributes></touched_attributes></create><read imns="false" is_set="false"><touched_attributes></touched_attributes></read><update imns="false" is_set="false"><touched_attributes></touched_attributes></update><delete imns="false" is_set="false"><touched_attributes></touched_attributes></delete><best_read imns="false" is_set="false"></best_read><influences><influence entity_id_ref="E0" imns="false" is_set="false"></influence><influence entity_id_ref="E1" imns="false" is_set="false"></influence></influences></action></actions><test_cases></test_cases></crud></project>